Setting Up the Data • trekR
…
head(jan[1:3])
#> <list_of<
#>   tbl_df<
#>     ID   : factor<15f40>
#>     date : date
#>     utm_x: double
#>     utm_y: double
#>     month: double
#>     jDate: double
#>     new  : date
#>   >
#> >[3]>
#> [[1]]
#> # A tibble: 30 x 7
#>    ID    date         utm_x    utm_y month jDate new       
#>    <fct> <date>       <dbl>    <dbl> <dbl> <dbl> <date>    
#>  1 A     2013-01-01 675041. 4100659.     1 15706 2013-01-01
#>  2 A     2013-01-04 677977. 4099208.     1 15709 2013-01-01
#>  3 A     2013-01-07 668007. 4099102.     1 15712 2013-01-01
#>  4 A     2013-01-10 679818. 4100927.     1 15715 2013-01-01
#>  5 A     2013-01-02 677705. 4100835.     1 15707 2013-01-01
#>  6 A     2013-01-05 672386. 4099735.     1 15710 2013-01-01
#>  7 A     2013-01-08 678703. 4099185.     1 15713 2013-01-01
#>  8 A     2013-01-03 673280. 4099504.     1 15708 2013-01-01
#>  9 A     2013-01-06 673290. 4100454.     1 15711 2013-01-01
#> 10 A     2013-01-09 669173. 4099010.     1 15714 2013-01-01
#> # ... with 20 more rows
#> 
#> [[2]]
#> # A tibble: 30 x 7
#>    ID    date         utm_x    utm_y month jDate new       
#>    <fct> <date>       <dbl>    <dbl> <dbl> <dbl> <date>    
#>  1 A     2013-01-13 675303. 4100816.     1 15718 2013-01-11
#>  2 A     2013-01-16 670449. 4099749.     1 15721 2013-01-11
#>  3 A     2013-01-19 665411. 4099808.     1 15724 2013-01-11
#>  4 A     2013-01-11 669950. 4099564.     1 15716 2013-01-11
#>  5 A     2013-01-14 667699. 4100489.     1 15719 2013-01-11
#>  6 A     2013-01-17 676642. 4099023.     1 15722 2013-01-11
#>  7 A     2013-01-20 676167. 4099622.     1 15725 2013-01-11
#>  8 A     2013-01-12 663410. 4099471.     1 15717 2013-01-11
#>  9 A     2013-01-15 674337. 4099275.     1 15720 2013-01-11
#> 10 A     2013-01-18 668059. 4099773.     1 15723 2013-01-11
#> # ... with 20 more rows
#> 
#> [[3]]
#> # A tibble: 33 x 7
#>    ID    date         utm_x    utm_y month jDate new       
#>    <fct> <date>       <dbl>    <dbl> <dbl> <dbl> <date>    
#>  1 A     2013-01-22 668037. 4100695.     1 15727 2013-01-21
#>  2 A     2013-01-25 673684. 4099971.     1 15730 2013-01-21
#>  3 A     2013-01-28 671898. 4100186.     1 15733 2013-01-21
#>  4 A     2013-01-31 676322. 4098825.     1 15736 2013-01-21
#>  5 A     2013-01-23 665581. 4099176.     1 15728 2013-01-21
#>  6 A     2013-01-26 676227. 4100184.     1 15731 2013-01-21
#>  7 A     2013-01-29 665216. 4100765.     1 15734 2013-01-21
#>  8 A     2013-01-21 666105. 4100722.     1 15726 2013-01-21
#>  9 A     2013-01-24 670321. 4100484.     1 15729 2013-01-21
#> 10 A     2013-01-27 676075. 4098786.     1 15732 2013-01-21
#> # ... with 23 more rows
…
